<?xml version="1.0" standalone="no"?>
<!DOCTYPE svg PUBLIC "-//W3C//DTD SVG 1.1//EN" "http://www.w3.org/Graphics/SVG/1.1/DTD/svg11.dtd">
<svg xmlns="http://www.w3.org/2000/svg">
<metadata>Generated by Fontastic.me</metadata>
<defs>
<font id="braveheart" horiz-adv-x="512">
<font-face font-family="braveheart" units-per-em="512" ascent="480" descent="-32"/>
<missing-glyph horiz-adv-x="512" />

<glyph unicode="&#97;" d="M292 353l74 0-9-81-65 0 0-235-97 0 0 235-49 0 0 81 49 0 0 49c0 35 8 61 24 79 17 18 44 26 81 26l65 0 0-81-40 0c-8 0-14 0-18-2-5-1-8-3-10-6-2-4-3-7-4-10 0-3-1-8-1-14z"/>
<glyph unicode="&#98;" d="M481 395c-13-18-28-34-46-47 0-3 0-7 0-12 0-25-3-50-11-74-7-25-18-49-33-71-14-23-32-43-52-61-21-17-45-31-74-41-29-11-60-16-92-16-52 0-99 14-142 42 7-1 14-2 22-2 43 0 81 14 115 40-20 0-38 6-54 18-16 12-27 27-33 46 7-1 13-2 18-2 8 0 16 1 24 4-21 4-39 15-53 31-14 17-21 37-21 59l0 1c13-7 27-11 42-11-13 8-23 19-30 32-8 14-11 29-11 44 0 17 4 33 12 47 23-28 51-51 84-68 33-17 69-27 107-29-2 8-3 15-3 22 0 25 9 47 27 65 18 18 40 27 66 27 26 0 49-10 67-29 21 4 40 11 59 22-7-22-21-39-41-51 18 2 35 7 53 14z"/>
<glyph unicode="&#99;" d="M0 100l1 0-1 0z m256 157l240 153-477 0 21-14z m256-143l0 283-184-118z m-512 283l0-284 184 165z m310-131l-54-35-53 35-2-1-184-165 479 0-185 165z"/>
<glyph unicode="&#100;" d="M36 491c21 20 81 24 82 13 1-11 55-130 56-141 1-11-36-47-47-58-11-11 72-104 73-105 1-2 94-84 105-74 11 11 47 47 58 47 11 0 130-55 141-56 11 0 7-62-13-82-17-17-107-80-263 33-17 9-44 32-85 73-41 41-64 69-74 86-113 157-51 247-33 264z"/>
<glyph unicode="&#101;" d="M72 512c-4 0-8-1-11-3l-58-58c-5-5-3-15 3-22l174-173-174-173c-6-7-7-16-3-22l58-58c6-5 15-4 22 2l173 174 173-174c7-6 16-6 22-2l58 58c4 6 3 15-3 22l-174 173 174 173c6 7 7 16 3 22l-58 58c-6 4-15 3-22-3l-173-174-173 174c-4 3-8 5-11 6z"/>
</font></defs></svg>
